module github.com/gitpod-io/gitpod/blobserve

go 1.17

require (
	github.com/containerd/containerd v1.6.1
	github.com/docker/cli v20.10.7+incompatible
	github.com/docker/distribution v2.8.0+incompatible
	github.com/gitpod-io/gitpod/common-go v0.0.0-00010101000000-000000000000
	github.com/gitpod-io/gitpod/registry-facade v0.0.0-00010101000000-000000000000
	github.com/google/go-cmp v0.5.6
	github.com/gorilla/mux v1.8.0
	github.com/heptiolabs/healthcheck v0.0.0-20211123025425-613501dd5deb
	github.com/opencontainers/image-spec v1.0.2-0.20211117181255-693428a734f5
	github.com/prometheus/client_golang v1.12.1
	github.com/spf13/cobra v1.2.1
	golang.org/x/sync v0.0.0-20210220032951-036812b2e83c
	golang.org/x/xerrors v0.0.0-20200804184101-5ec99f83aff1
)

require (
	github.com/beorn7/perks v1.0.1 // indirect
	github.com/btcsuite/btcd v0.21.0-beta // indirect
	github.com/cespare/xxhash/v2 v2.1.2 // indirect
	github.com/crackcomm/go-gitignore v0.0.0-20170627025303-887ab5e44cc3 // indirect
	github.com/dgryski/go-rendezvous v0.0.0-20200823014737-9f7001d12a5f // indirect
	github.com/docker/docker-credential-helpers v0.6.4 // indirect
	github.com/felixge/httpsnoop v1.0.1 // indirect
	github.com/gitpod-io/gitpod/registry-facade/api v0.0.0-00010101000000-000000000000 // indirect
	github.com/go-logr/logr v1.2.2 // indirect
	github.com/go-redis/redis/v8 v8.11.5 // indirect
	github.com/gogo/protobuf v1.3.2 // indirect
	github.com/golang/protobuf v1.5.2 // indirect
	github.com/google/gofuzz v1.2.0 // indirect
	github.com/google/uuid v1.2.0 // indirect
	github.com/gorilla/handlers v1.5.1 // indirect
	github.com/grpc-ecosystem/go-grpc-middleware v1.3.0 // indirect
	github.com/grpc-ecosystem/go-grpc-prometheus v1.2.0 // indirect
	github.com/hashicorp/golang-lru v0.5.4 // indirect
	github.com/inconshreveable/mousetrap v1.0.0 // indirect
	github.com/ipfs/bbloom v0.0.4 // indirect
	github.com/ipfs/go-block-format v0.0.3 // indirect
	github.com/ipfs/go-blockservice v0.1.7 // indirect
	github.com/ipfs/go-cid v0.0.7 // indirect
	github.com/ipfs/go-datastore v0.4.5 // indirect
	github.com/ipfs/go-ipfs-blockstore v0.1.6 // indirect
	github.com/ipfs/go-ipfs-cmds v0.6.0 // indirect
	github.com/ipfs/go-ipfs-ds-help v0.1.1 // indirect
	github.com/ipfs/go-ipfs-exchange-interface v0.0.1 // indirect
	github.com/ipfs/go-ipfs-files v0.0.8 // indirect
	github.com/ipfs/go-ipfs-http-client v0.2.0 // indirect
	github.com/ipfs/go-ipfs-util v0.0.2 // indirect
	github.com/ipfs/go-ipld-cbor v0.0.5 // indirect
	github.com/ipfs/go-ipld-format v0.2.0 // indirect
	github.com/ipfs/go-ipld-legacy v0.1.0 // indirect
	github.com/ipfs/go-log v1.0.5 // indirect
	github.com/ipfs/go-log/v2 v2.1.3 // indirect
	github.com/ipfs/go-merkledag v0.4.0 // indirect
	github.com/ipfs/go-metrics-interface v0.0.1 // indirect
	github.com/ipfs/go-path v0.1.1 // indirect
	github.com/ipfs/go-unixfs v0.2.5 // indirect
	github.com/ipfs/go-verifcid v0.0.1 // indirect
	github.com/ipfs/interface-go-ipfs-core v0.5.2 // indirect
	github.com/ipld/go-codec-dagpb v1.3.0 // indirect
	github.com/ipld/go-ipld-prime v0.11.0 // indirect
	github.com/jbenet/goprocess v0.1.4 // indirect
	github.com/json-iterator/go v1.1.12 // indirect
	github.com/klauspost/compress v1.11.13 // indirect
	github.com/klauspost/cpuid/v2 v2.0.6 // indirect
	github.com/libp2p/go-buffer-pool v0.0.2 // indirect
	github.com/libp2p/go-libp2p-core v0.8.6 // indirect
	github.com/libp2p/go-openssl v0.0.7 // indirect
	github.com/matttproud/golang_protobuf_extensions v1.0.2-0.20181231171920-c182affec369 // indirect
	github.com/minio/blake2b-simd v0.0.0-20160723061019-3f5f724cb5b1 // indirect
	github.com/minio/sha256-simd v1.0.0 // indirect
	github.com/mitchellh/go-homedir v1.1.0 // indirect
	github.com/moby/locker v1.0.1 // indirect
	github.com/modern-go/concurrent v0.0.0-20180306012644-bacd9c7ef1dd // indirect
	github.com/modern-go/reflect2 v1.0.2 // indirect
	github.com/mr-tron/base58 v1.2.0 // indirect
	github.com/multiformats/go-base32 v0.0.3 // indirect
	github.com/multiformats/go-base36 v0.1.0 // indirect
	github.com/multiformats/go-multiaddr v0.3.3 // indirect
	github.com/multiformats/go-multibase v0.0.3 // indirect
	github.com/multiformats/go-multihash v0.0.15 // indirect
	github.com/multiformats/go-varint v0.0.6 // indirect
	github.com/opencontainers/go-digest v1.0.0 // indirect
	github.com/opentracing/opentracing-go v1.2.0 // indirect
	github.com/pkg/errors v0.9.1 // indirect
	github.com/polydawn/refmt v0.0.0-20201211092308-30ac6d18308e // indirect
	github.com/prometheus/client_model v0.2.0 // indirect
	github.com/prometheus/common v0.32.1 // indirect
	github.com/prometheus/procfs v0.7.3 // indirect
	github.com/rs/cors v1.7.0 // indirect
	github.com/sirupsen/logrus v1.8.1 // indirect
	github.com/spacemonkeygo/spacelog v0.0.0-20180420211403-2296661a0572 // indirect
	github.com/spf13/pflag v1.0.5 // indirect
	github.com/uber/jaeger-client-go v2.29.1+incompatible // indirect
	github.com/uber/jaeger-lib v2.4.1+incompatible // indirect
	github.com/whyrusleeping/cbor-gen v0.0.0-20200123233031-1cdf64d27158 // indirect
	go.uber.org/atomic v1.9.0 // indirect
	go.uber.org/multierr v1.7.0 // indirect
	go.uber.org/zap v1.19.0 // indirect
	golang.org/x/crypto v0.0.0-20210817164053-32db794688a5 // indirect
	golang.org/x/net v0.0.0-20211216030914-fe4d6282115f // indirect
	golang.org/x/sys v0.0.0-20220114195835-da31bd327af9 // indirect
	golang.org/x/text v0.3.7 // indirect
	golang.org/x/time v0.0.0-20210723032227-1f47c861a9ac // indirect
	google.golang.org/genproto v0.0.0-20211208223120-3a66f561d7aa // indirect
	google.golang.org/grpc v1.43.0 // indirect
	google.golang.org/protobuf v1.27.1 // indirect
	gopkg.in/inf.v0 v0.9.1 // indirect
	gopkg.in/yaml.v2 v2.4.0 // indirect
	k8s.io/api v0.23.4 // indirect
	k8s.io/apimachinery v0.23.4 // indirect
	k8s.io/klog/v2 v2.30.0 // indirect
	k8s.io/utils v0.0.0-20211116205334-6203023598ed // indirect
	sigs.k8s.io/json v0.0.0-20211020170558-c049b76a60c6 // indirect
	sigs.k8s.io/structured-merge-diff/v4 v4.2.1 // indirect
)

replace github.com/gitpod-io/gitpod/gitpod-protocol => ../gitpod-protocol/go // leeway

replace github.com/gitpod-io/gitpod/common-go => ../common-go // leeway

replace github.com/gitpod-io/gitpod/registry-facade => ../registry-facade // leeway

replace github.com/gitpod-io/gitpod/registry-facade/api => ../registry-facade-api/go // leeway

replace k8s.io/api => k8s.io/api v0.23.4 // leeway indirect from components/common-go:lib

replace k8s.io/apiextensions-apiserver => k8s.io/apiextensions-apiserver v0.23.4 // leeway indirect from components/common-go:lib

replace k8s.io/apimachinery => k8s.io/apimachinery v0.23.4 // leeway indirect from components/common-go:lib

replace k8s.io/apiserver => k8s.io/apiserver v0.23.4 // leeway indirect from components/common-go:lib

replace k8s.io/cli-runtime => k8s.io/cli-runtime v0.23.4 // leeway indirect from components/common-go:lib

replace k8s.io/client-go => k8s.io/client-go v0.23.4 // leeway indirect from components/common-go:lib

replace k8s.io/cloud-provider => k8s.io/cloud-provider v0.23.4 // leeway indirect from components/common-go:lib

replace k8s.io/cluster-bootstrap => k8s.io/cluster-bootstrap v0.23.4 // leeway indirect from components/common-go:lib

replace k8s.io/code-generator => k8s.io/code-generator v0.23.4 // leeway indirect from components/common-go:lib

replace k8s.io/component-base => k8s.io/component-base v0.23.4 // leeway indirect from components/common-go:lib

replace k8s.io/cri-api => k8s.io/cri-api v0.23.4 // leeway indirect from components/common-go:lib

replace k8s.io/csi-translation-lib => k8s.io/csi-translation-lib v0.23.4 // leeway indirect from components/common-go:lib

replace k8s.io/kube-aggregator => k8s.io/kube-aggregator v0.23.4 // leeway indirect from components/common-go:lib

replace k8s.io/kube-controller-manager => k8s.io/kube-controller-manager v0.23.4 // leeway indirect from components/common-go:lib

replace k8s.io/kube-proxy => k8s.io/kube-proxy v0.23.4 // leeway indirect from components/common-go:lib

replace k8s.io/kube-scheduler => k8s.io/kube-scheduler v0.23.4 // leeway indirect from components/common-go:lib

replace k8s.io/kubelet => k8s.io/kubelet v0.23.4 // leeway indirect from components/common-go:lib

replace k8s.io/legacy-cloud-providers => k8s.io/legacy-cloud-providers v0.23.4 // leeway indirect from components/common-go:lib

replace k8s.io/metrics => k8s.io/metrics v0.23.4 // leeway indirect from components/common-go:lib

replace k8s.io/sample-apiserver => k8s.io/sample-apiserver v0.23.4 // leeway indirect from components/common-go:lib

replace k8s.io/component-helpers => k8s.io/component-helpers v0.23.4 // leeway indirect from components/common-go:lib

replace k8s.io/controller-manager => k8s.io/controller-manager v0.23.4 // leeway indirect from components/common-go:lib

replace k8s.io/kubectl => k8s.io/kubectl v0.23.4 // leeway indirect from components/common-go:lib

replace k8s.io/mount-utils => k8s.io/mount-utils v0.23.4 // leeway indirect from components/common-go:lib

replace k8s.io/pod-security-admission => k8s.io/pod-security-admission v0.23.4 // leeway indirect from components/common-go:lib
